^C:\USERS\49773\DOWNLOADS\OPENGL-MASTER\OPENGL-MASTER\ZAD3\STDAFX.CPP
/c /I"C:\USERS\49773\DOWNLOADS\OPENGL-MASTER\OPENGL-MASTER\PACKAGES\NUPENGL.CORE.0.1.0.1\BUILD\NATIVE\../..//BUILD/NATIVE/INCLUDE/" /ZI /nologo /W3 /WX- /sdl /Od /D _DEBUG /D _CONSOLE /D _UNICODE /D UNICODE /Gm /EHsc /RTC1 /MDd /GS /fp:precise /Zc:wchar_t /Zc:forScope /Zc:inline /Yc"stdafx.h" /Fp"X64\DEBUG\ZAD3.PCH" /Fo"X64\DEBUG\\" /Fd"X64\DEBUG\VC140.PDB" /Gd /TP C:\USERS\49773\DOWNLOADS\OPENGL-MASTER\OPENGL-MASTER\ZAD3\STDAFX.CPP
^C:\USERS\49773\DOWNLOADS\OPENGL-MASTER\OPENGL-MASTER\ZAD3\ZAD3.CPP
/c /I"C:\USERS\49773\DOWNLOADS\OPENGL-MASTER\OPENGL-MASTER\PACKAGES\NUPENGL.CORE.0.1.0.1\BUILD\NATIVE\../..//BUILD/NATIVE/INCLUDE/" /ZI /nologo /W3 /WX- /sdl /Od /D _DEBUG /D _CONSOLE /D _UNICODE /D UNICODE /Gm /EHsc /RTC1 /MDd /GS /fp:precise /Zc:wchar_t /Zc:forScope /Zc:inline /Yu"stdafx.h" /Fp"X64\DEBUG\ZAD3.PCH" /Fo"X64\DEBUG\\" /Fd"X64\DEBUG\VC140.PDB" /Gd /TP C:\USERS\49773\DOWNLOADS\OPENGL-MASTER\OPENGL-MASTER\ZAD3\ZAD3.CPP
^G:\POBRANE\OPENGL-MASTER\OPENGL-MASTER\OPENGL-MASTER\ZAD3\STDAFX.CPP
/c /I"G:\POBRANE\OPENGL-MASTER\OPENGL-MASTER\OPENGL-MASTER\PACKAGES\NUPENGL.CORE.0.1.0.1\BUILD\NATIVE\../..//BUILD/NATIVE/INCLUDE/" /ZI /nologo /W3 /WX- /sdl /Od /D _DEBUG /D _CONSOLE /D _UNICODE /D UNICODE /Gm /EHsc /RTC1 /MDd /GS /fp:precise /Zc:wchar_t /Zc:forScope /Zc:inline /Yc"stdafx.h" /Fp"X64\DEBUG\ZAD3.PCH" /Fo"X64\DEBUG\\" /Fd"X64\DEBUG\VC140.PDB" /Gd /TP G:\POBRANE\OPENGL-MASTER\OPENGL-MASTER\OPENGL-MASTER\ZAD3\STDAFX.CPP
^G:\POBRANE\OPENGL-MASTER\OPENGL-MASTER\OPENGL-MASTER\ZAD3\ZAD3.CPP
/c /I"G:\POBRANE\OPENGL-MASTER\OPENGL-MASTER\OPENGL-MASTER\PACKAGES\NUPENGL.CORE.0.1.0.1\BUILD\NATIVE\../..//BUILD/NATIVE/INCLUDE/" /ZI /nologo /W3 /WX- /sdl /Od /D _DEBUG /D _CONSOLE /D _UNICODE /D UNICODE /Gm /EHsc /RTC1 /MDd /GS /fp:precise /Zc:wchar_t /Zc:forScope /Zc:inline /Yu"stdafx.h" /Fp"X64\DEBUG\ZAD3.PCH" /Fo"X64\DEBUG\\" /Fd"X64\DEBUG\VC140.PDB" /Gd /TP G:\POBRANE\OPENGL-MASTER\OPENGL-MASTER\OPENGL-MASTER\ZAD3\ZAD3.CPP
^G:\DOKUMENTY\GRAFIKA\#1\OPENGL-MASTER\OPENGL-MASTER\OPENGL-MASTER\ZAD3\STDAFX.CPP
/c /I"G:\DOKUMENTY\GRAFIKA\#1\OPENGL-MASTER\OPENGL-MASTER\OPENGL-MASTER\PACKAGES\NUPENGL.CORE.0.1.0.1\BUILD\NATIVE\../..//BUILD/NATIVE/INCLUDE/" /ZI /nologo /W3 /WX- /sdl /Od /D _DEBUG /D _CONSOLE /D _UNICODE /D UNICODE /Gm /EHsc /RTC1 /MDd /GS /fp:precise /Zc:wchar_t /Zc:forScope /Zc:inline /Yc"stdafx.h" /Fp"X64\DEBUG\ZAD3.PCH" /Fo"X64\DEBUG\\" /Fd"X64\DEBUG\VC140.PDB" /Gd /TP G:\DOKUMENTY\GRAFIKA\#1\OPENGL-MASTER\OPENGL-MASTER\OPENGL-MASTER\ZAD3\STDAFX.CPP
^G:\DOKUMENTY\GRAFIKA\#1\OPENGL-MASTER\OPENGL-MASTER\OPENGL-MASTER\ZAD3\ZAD3.CPP
/c /I"G:\DOKUMENTY\GRAFIKA\#1\OPENGL-MASTER\OPENGL-MASTER\OPENGL-MASTER\PACKAGES\NUPENGL.CORE.0.1.0.1\BUILD\NATIVE\../..//BUILD/NATIVE/INCLUDE/" /ZI /nologo /W3 /WX- /sdl /Od /D _DEBUG /D _CONSOLE /D _UNICODE /D UNICODE /Gm /EHsc /RTC1 /MDd /GS /fp:precise /Zc:wchar_t /Zc:forScope /Zc:inline /Yu"stdafx.h" /Fp"X64\DEBUG\ZAD3.PCH" /Fo"X64\DEBUG\\" /Fd"X64\DEBUG\VC140.PDB" /Gd /TP G:\DOKUMENTY\GRAFIKA\#1\OPENGL-MASTER\OPENGL-MASTER\OPENGL-MASTER\ZAD3\ZAD3.CPP
