^C:\USERS\49773\DOWNLOADS\OPENGL-MASTER\OPENGL-MASTER\WSP\X64\DEBUG\STDAFX.OBJ|C:\USERS\49773\DOWNLOADS\OPENGL-MASTER\OPENGL-MASTER\WSP\X64\DEBUG\WSP.OBJ
/OUT:"C:\USERS\49773\DOWNLOADS\OPENGL-MASTER\OPENGL-MASTER\X64\DEBUG\WSP.EXE" /INCREMENTAL /NOLOGO KERNEL32.LIB USER32.LIB GDI32.LIB WINSPOOL.LIB COMDLG32.LIB ADVAPI32.LIB SHELL32.LIB OLE32.LIB OLEAUT32.LIB UUID.LIB ODBC32.LIB ODBCCP32.LIB /MANIFEST /MANIFESTUAC:"level='asInvoker' uiAccess='false'" /manifest:embed /DEBUG /PDB:"C:\USERS\49773\DOWNLOADS\OPENGL-MASTER\OPENGL-MASTER\X64\DEBUG\WSP.PDB" /SUBSYSTEM:CONSOLE /TLBID:1 /DYNAMICBASE /NXCOMPAT /IMPLIB:"C:\USERS\49773\DOWNLOADS\OPENGL-MASTER\OPENGL-MASTER\X64\DEBUG\WSP.LIB" /MACHINE:X64 X64\DEBUG\STDAFX.OBJX64\DEBUG\WSP.OBJ
^G:\POBRANE\OPENGL-MASTER\OPENGL-MASTER\OPENGL-MASTER\WSP\X64\DEBUG\STDAFX.OBJ|G:\POBRANE\OPENGL-MASTER\OPENGL-MASTER\OPENGL-MASTER\WSP\X64\DEBUG\WSP.OBJ
/OUT:"G:\POBRANE\OPENGL-MASTER\OPENGL-MASTER\OPENGL-MASTER\X64\DEBUG\WSP.EXE" /INCREMENTAL /NOLOGO KERNEL32.LIB USER32.LIB GDI32.LIB WINSPOOL.LIB COMDLG32.LIB ADVAPI32.LIB SHELL32.LIB OLE32.LIB OLEAUT32.LIB UUID.LIB ODBC32.LIB ODBCCP32.LIB /MANIFEST /MANIFESTUAC:"level='asInvoker' uiAccess='false'" /manifest:embed /DEBUG /PDB:"G:\POBRANE\OPENGL-MASTER\OPENGL-MASTER\OPENGL-MASTER\X64\DEBUG\WSP.PDB" /SUBSYSTEM:CONSOLE /TLBID:1 /DYNAMICBASE /NXCOMPAT /IMPLIB:"G:\POBRANE\OPENGL-MASTER\OPENGL-MASTER\OPENGL-MASTER\X64\DEBUG\WSP.LIB" /MACHINE:X64 X64\DEBUG\STDAFX.OBJX64\DEBUG\WSP.OBJ
